{
	"info": {
		"_postman_id": "cfb03566-8783-432e-aea7-41ece4322d83",
		"name": "s36 ACTIVITY",
		"schema": "https://schema.getpostman.com/json/collection/v2.1.0/collection.json",
		"_exporter_id": "27195178"
	},
	"item": [
		{
			"name": "GETTING SPECIFIC TASK",
			"request": {
				"method": "GET",
				"header": []
			},
			"response": []
		},
		{
			"name": "UPDATING TASK STATUS",
			"request": {
				"method": "PUT",
				"header": [],
				"url": {
					"raw": "localhost:4000/tasks/",
					"host": [
						"localhost"
					],
					"port": "4000",
					"path": [
						"tasks",
						""
					]
				}
			},
			"response": []
		}
	]
}